%YAML 1.1
%TAG !u! tag:unity3d.com,2011:
--- !u!1001 &279771355141937728
PrefabInstance:
  m_ObjectHideFlags: 0
  serializedVersion: 2
  m_Modification:
    m_TransformParent: {fileID: 894143900490426340}
    m_Modifications:
    - target: {fileID: 1598221291702585966, guid: 080eb7301193b1246afa8d64caf9da8a,
        type: 3}
      propertyPath: m_Mesh
      value: 
      objectReference: {fileID: 0}
    - target: {fileID: 3940256565368168248, guid: 080eb7301193b1246afa8d64caf9da8a,
        type: 3}
      propertyPath: m_Name
      value: Bullet
      objectReference: {fileID: 0}
    - target: {fileID: 4999188870570080635, guid: 080eb7301193b1246afa8d64caf9da8a,
        type: 3}
      propertyPath: m_Mesh
      value: 
      objectReference: {fileID: 0}
    - target: {fileID: 9134843515230038124, guid: 080eb7301193b1246afa8d64caf9da8a,
        type: 3}
      propertyPath: m_LocalPosition.x
      value: 0.699
      objectReference: {fileID: 0}
    - target: {fileID: 9134843515230038124, guid: 080eb7301193b1246afa8d64caf9da8a,
        type: 3}
      propertyPath: m_LocalPosition.y
      value: 0.234
      objectReference: {fileID: 0}
    - target: {fileID: 9134843515230038124, guid: 080eb7301193b1246afa8d64caf9da8a,
        type: 3}
      propertyPath: m_LocalPosition.z
      value: 0
      objectReference: {fileID: 0}
    - target: {fileID: 9134843515230038124, guid: 080eb7301193b1246afa8d64caf9da8a,
        type: 3}
      propertyPath: m_LocalRotation.x
      value: 0
      objectReference: {fileID: 0}
    - target: {fileID: 9134843515230038124, guid: 080eb7301193b1246afa8d64caf9da8a,
        type: 3}
      propertyPath: m_LocalRotation.y
      value: 0
      objectReference: {fileID: 0}
    - target: {fileID: 9134843515230038124, guid: 080eb7301193b1246afa8d64caf9da8a,
        type: 3}
      propertyPath: m_LocalRotation.z
      value: 0.7071068
      objectReference: {fileID: 0}
    - target: {fileID: 9134843515230038124, guid: 080eb7301193b1246afa8d64caf9da8a,
        type: 3}
      propertyPath: m_LocalRotation.w
      value: 0.7071068
      objectReference: {fileID: 0}
    - target: {fileID: 9134843515230038124, guid: 080eb7301193b1246afa8d64caf9da8a,
        type: 3}
      propertyPath: m_RootOrder
      value: 0
      objectReference: {fileID: 0}
    - target: {fileID: 9134843515230038124, guid: 080eb7301193b1246afa8d64caf9da8a,
        type: 3}
      propertyPath: m_LocalEulerAnglesHint.x
      value: 0
      objectReference: {fileID: 0}
    - target: {fileID: 9134843515230038124, guid: 080eb7301193b1246afa8d64caf9da8a,
        type: 3}
      propertyPath: m_LocalEulerAnglesHint.y
      value: 0
      objectReference: {fileID: 0}
    - target: {fileID: 9134843515230038124, guid: 080eb7301193b1246afa8d64caf9da8a,
        type: 3}
      propertyPath: m_LocalEulerAnglesHint.z
      value: 90
      objectReference: {fileID: 0}
    m_RemovedComponents: []
  m_SourcePrefab: {fileID: 100100000, guid: 080eb7301193b1246afa8d64caf9da8a, type: 3}
--- !u!1001 &679720889657819111
PrefabInstance:
  m_ObjectHideFlags: 0
  serializedVersion: 2
  m_Modification:
    m_TransformParent: {fileID: 0}
    m_Modifications:
    - target: {fileID: 362110616345188355, guid: f9f9aef8178b38943a037822fc675353,
        type: 3}
      propertyPath: m_LocalPosition.x
      value: -18.688122
      objectReference: {fileID: 0}
    - target: {fileID: 362110616345188355, guid: f9f9aef8178b38943a037822fc675353,
        type: 3}
      propertyPath: m_LocalPosition.y
      value: -0.0018310547
      objectReference: {fileID: 0}
    - target: {fileID: 362110616345188355, guid: f9f9aef8178b38943a037822fc675353,
        type: 3}
      propertyPath: m_LocalPosition.z
      value: 38.543053
      objectReference: {fileID: 0}
    - target: {fileID: 362110616345188355, guid: f9f9aef8178b38943a037822fc675353,
        type: 3}
      propertyPath: m_LocalRotation.x
      value: 0
      objectReference: {fileID: 0}
    - target: {fileID: 362110616345188355, guid: f9f9aef8178b38943a037822fc675353,
        type: 3}
      propertyPath: m_LocalRotation.y
      value: 0
      objectReference: {fileID: 0}
    - target: {fileID: 362110616345188355, guid: f9f9aef8178b38943a037822fc675353,
        type: 3}
      propertyPath: m_LocalRotation.z
      value: 0
      objectReference: {fileID: 0}
    - target: {fileID: 362110616345188355, guid: f9f9aef8178b38943a037822fc675353,
        type: 3}
      propertyPath: m_LocalRotation.w
      value: 1
      objectReference: {fileID: 0}
    - target: {fileID: 362110616345188355, guid: f9f9aef8178b38943a037822fc675353,
        type: 3}
      propertyPath: m_RootOrder
      value: 0
      objectReference: {fileID: 0}
    - target: {fileID: 362110616345188355, guid: f9f9aef8178b38943a037822fc675353,
        type: 3}
      propertyPath: m_LocalEulerAnglesHint.x
      value: 0
      objectReference: {fileID: 0}
    - target: {fileID: 362110616345188355, guid: f9f9aef8178b38943a037822fc675353,
        type: 3}
      propertyPath: m_LocalEulerAnglesHint.y
      value: 0
      objectReference: {fileID: 0}
    - target: {fileID: 362110616345188355, guid: f9f9aef8178b38943a037822fc675353,
        type: 3}
      propertyPath: m_LocalEulerAnglesHint.z
      value: 0
      objectReference: {fileID: 0}
    - target: {fileID: 5726652554540917644, guid: f9f9aef8178b38943a037822fc675353,
        type: 3}
      propertyPath: m_RootOrder
      value: 3
      objectReference: {fileID: 0}
    - target: {fileID: 5726652554540917644, guid: f9f9aef8178b38943a037822fc675353,
        type: 3}
      propertyPath: m_LocalRotation.x
      value: 0.33105138
      objectReference: {fileID: 0}
    - target: {fileID: 5726652554540917644, guid: f9f9aef8178b38943a037822fc675353,
        type: 3}
      propertyPath: m_LocalRotation.y
      value: 0.624824
      objectReference: {fileID: 0}
    - target: {fileID: 5726652554540917644, guid: f9f9aef8178b38943a037822fc675353,
        type: 3}
      propertyPath: m_LocalRotation.z
      value: -0.3310514
      objectReference: {fileID: 0}
    - target: {fileID: 5726652554540917644, guid: f9f9aef8178b38943a037822fc675353,
        type: 3}
      propertyPath: m_LocalRotation.w
      value: 0.6248239
      objectReference: {fileID: 0}
    - target: {fileID: 5726652554540917644, guid: f9f9aef8178b38943a037822fc675353,
        type: 3}
      propertyPath: m_LocalPosition.x
      value: -1.139
      objectReference: {fileID: 0}
    - target: {fileID: 5726652554540917644, guid: f9f9aef8178b38943a037822fc675353,
        type: 3}
      propertyPath: m_LocalPosition.y
      value: 1.436
      objectReference: {fileID: 0}
    - target: {fileID: 5726652554540917644, guid: f9f9aef8178b38943a037822fc675353,
        type: 3}
      propertyPath: m_LocalPosition.z
      value: 0.144
      objectReference: {fileID: 0}
    - target: {fileID: 5726652554540917644, guid: f9f9aef8178b38943a037822fc675353,
        type: 3}
      propertyPath: m_LocalEulerAnglesHint.x
      value: 55.832005
      objectReference: {fileID: 0}
    - target: {fileID: 6004620437367570122, guid: f9f9aef8178b38943a037822fc675353,
        type: 3}
      propertyPath: m_Intensity
      value: 2
      objectReference: {fileID: 0}
    - target: {fileID: 8444688599290004063, guid: f9f9aef8178b38943a037822fc675353,
        type: 3}
      propertyPath: m_Name
      value: BulletsPickup
      objectReference: {fileID: 0}
    m_RemovedComponents: []
  m_SourcePrefab: {fileID: 100100000, guid: f9f9aef8178b38943a037822fc675353, type: 3}
--- !u!4 &894143900490426340 stripped
Transform:
  m_CorrespondingSourceObject: {fileID: 362110616345188355, guid: f9f9aef8178b38943a037822fc675353,
    type: 3}
  m_PrefabInstance: {fileID: 679720889657819111}
  m_PrefabAsset: {fileID: 0}
--- !u!1001 &7999039966981944127
PrefabInstance:
  m_ObjectHideFlags: 0
  serializedVersion: 2
  m_Modification:
    m_TransformParent: {fileID: 894143900490426340}
    m_Modifications:
    - target: {fileID: 1598221291702585966, guid: 080eb7301193b1246afa8d64caf9da8a,
        type: 3}
      propertyPath: m_Mesh
      value: 
      objectReference: {fileID: 0}
    - target: {fileID: 3940256565368168248, guid: 080eb7301193b1246afa8d64caf9da8a,
        type: 3}
      propertyPath: m_Name
      value: Bullet (1)
      objectReference: {fileID: 0}
    - target: {fileID: 4999188870570080635, guid: 080eb7301193b1246afa8d64caf9da8a,
        type: 3}
      propertyPath: m_Mesh
      value: 
      objectReference: {fileID: 0}
    - target: {fileID: 9134843515230038124, guid: 080eb7301193b1246afa8d64caf9da8a,
        type: 3}
      propertyPath: m_LocalPosition.x
      value: 0.699
      objectReference: {fileID: 0}
    - target: {fileID: 9134843515230038124, guid: 080eb7301193b1246afa8d64caf9da8a,
        type: 3}
      propertyPath: m_LocalPosition.y
      value: 0.234
      objectReference: {fileID: 0}
    - target: {fileID: 9134843515230038124, guid: 080eb7301193b1246afa8d64caf9da8a,
        type: 3}
      propertyPath: m_LocalPosition.z
      value: -0.345
      objectReference: {fileID: 0}
    - target: {fileID: 9134843515230038124, guid: 080eb7301193b1246afa8d64caf9da8a,
        type: 3}
      propertyPath: m_LocalRotation.x
      value: 0
      objectReference: {fileID: 0}
    - target: {fileID: 9134843515230038124, guid: 080eb7301193b1246afa8d64caf9da8a,
        type: 3}
      propertyPath: m_LocalRotation.y
      value: 0
      objectReference: {fileID: 0}
    - target: {fileID: 9134843515230038124, guid: 080eb7301193b1246afa8d64caf9da8a,
        type: 3}
      propertyPath: m_LocalRotation.z
      value: 0.7071068
      objectReference: {fileID: 0}
    - target: {fileID: 9134843515230038124, guid: 080eb7301193b1246afa8d64caf9da8a,
        type: 3}
      propertyPath: m_LocalRotation.w
      value: 0.7071068
      objectReference: {fileID: 0}
    - target: {fileID: 9134843515230038124, guid: 080eb7301193b1246afa8d64caf9da8a,
        type: 3}
      propertyPath: m_RootOrder
      value: 1
      objectReference: {fileID: 0}
    - target: {fileID: 9134843515230038124, guid: 080eb7301193b1246afa8d64caf9da8a,
        type: 3}
      propertyPath: m_LocalEulerAnglesHint.x
      value: 0
      objectReference: {fileID: 0}
    - target: {fileID: 9134843515230038124, guid: 080eb7301193b1246afa8d64caf9da8a,
        type: 3}
      propertyPath: m_LocalEulerAnglesHint.y
      value: 0
      objectReference: {fileID: 0}
    - target: {fileID: 9134843515230038124, guid: 080eb7301193b1246afa8d64caf9da8a,
        type: 3}
      propertyPath: m_LocalEulerAnglesHint.z
      value: 90
      objectReference: {fileID: 0}
    m_RemovedComponents: []
  m_SourcePrefab: {fileID: 100100000, guid: 080eb7301193b1246afa8d64caf9da8a, type: 3}
--- !u!1001 &8082721500671386624
PrefabInstance:
  m_ObjectHideFlags: 0
  serializedVersion: 2
  m_Modification:
    m_TransformParent: {fileID: 894143900490426340}
    m_Modifications:
    - target: {fileID: 1598221291702585966, guid: 080eb7301193b1246afa8d64caf9da8a,
        type: 3}
      propertyPath: m_Mesh
      value: 
      objectReference: {fileID: 0}
    - target: {fileID: 3940256565368168248, guid: 080eb7301193b1246afa8d64caf9da8a,
        type: 3}
      propertyPath: m_Name
      value: Bullet (2)
      objectReference: {fileID: 0}
    - target: {fileID: 4999188870570080635, guid: 080eb7301193b1246afa8d64caf9da8a,
        type: 3}
      propertyPath: m_Mesh
      value: 
      objectReference: {fileID: 0}
    - target: {fileID: 9134843515230038124, guid: 080eb7301193b1246afa8d64caf9da8a,
        type: 3}
      propertyPath: m_LocalPosition.x
      value: 0.699
      objectReference: {fileID: 0}
    - target: {fileID: 9134843515230038124, guid: 080eb7301193b1246afa8d64caf9da8a,
        type: 3}
      propertyPath: m_LocalPosition.y
      value: 0.234
      objectReference: {fileID: 0}
    - target: {fileID: 9134843515230038124, guid: 080eb7301193b1246afa8d64caf9da8a,
        type: 3}
      propertyPath: m_LocalPosition.z
      value: 0.331
      objectReference: {fileID: 0}
    - target: {fileID: 9134843515230038124, guid: 080eb7301193b1246afa8d64caf9da8a,
        type: 3}
      propertyPath: m_LocalRotation.x
      value: 0
      objectReference: {fileID: 0}
    - target: {fileID: 9134843515230038124, guid: 080eb7301193b1246afa8d64caf9da8a,
        type: 3}
      propertyPath: m_LocalRotation.y
      value: 0
      objectReference: {fileID: 0}
    - target: {fileID: 9134843515230038124, guid: 080eb7301193b1246afa8d64caf9da8a,
        type: 3}
      propertyPath: m_LocalRotation.z
      value: 0.7071068
      objectReference: {fileID: 0}
    - target: {fileID: 9134843515230038124, guid: 080eb7301193b1246afa8d64caf9da8a,
        type: 3}
      propertyPath: m_LocalRotation.w
      value: 0.7071068
      objectReference: {fileID: 0}
    - target: {fileID: 9134843515230038124, guid: 080eb7301193b1246afa8d64caf9da8a,
        type: 3}
      propertyPath: m_RootOrder
      value: 2
      objectReference: {fileID: 0}
    - target: {fileID: 9134843515230038124, guid: 080eb7301193b1246afa8d64caf9da8a,
        type: 3}
      propertyPath: m_LocalEulerAnglesHint.x
      value: 0
      objectReference: {fileID: 0}
    - target: {fileID: 9134843515230038124, guid: 080eb7301193b1246afa8d64caf9da8a,
        type: 3}
      propertyPath: m_LocalEulerAnglesHint.y
      value: 0
      objectReference: {fileID: 0}
    - target: {fileID: 9134843515230038124, guid: 080eb7301193b1246afa8d64caf9da8a,
        type: 3}
      propertyPath: m_LocalEulerAnglesHint.z
      value: 90
      objectReference: {fileID: 0}
    m_RemovedComponents: []
  m_SourcePrefab: {fileID: 100100000, guid: 080eb7301193b1246afa8d64caf9da8a, type: 3}
