%YAML 1.1
%TAG !u! tag:unity3d.com,2011:
--- !u!1001 &4697108642095476325
PrefabInstance:
  m_ObjectHideFlags: 0
  serializedVersion: 2
  m_Modification:
    m_TransformParent: {fileID: 6876308159770362818}
    m_Modifications:
    - target: {fileID: 1515458584978340056, guid: fd10bdafdef640f419530573503a3f18,
        type: 3}
      propertyPath: m_SelectedFaces.Array.size
      value: 0
      objectReference: {fileID: 0}
    - target: {fileID: 1515458584978340056, guid: fd10bdafdef640f419530573503a3f18,
        type: 3}
      propertyPath: m_SelectedEdges.Array.size
      value: 0
      objectReference: {fileID: 0}
    - target: {fileID: 1515458584978340056, guid: fd10bdafdef640f419530573503a3f18,
        type: 3}
      propertyPath: m_SelectedVertices.Array.size
      value: 0
      objectReference: {fileID: 0}
    - target: {fileID: 1515458584978340056, guid: fd10bdafdef640f419530573503a3f18,
        type: 3}
      propertyPath: m_SelectedFaces.Array.data[0]
      value: 36
      objectReference: {fileID: 0}
    - target: {fileID: 1515458584978340056, guid: fd10bdafdef640f419530573503a3f18,
        type: 3}
      propertyPath: m_SelectedEdges.Array.data[0].a
      value: 144
      objectReference: {fileID: 0}
    - target: {fileID: 1515458584978340056, guid: fd10bdafdef640f419530573503a3f18,
        type: 3}
      propertyPath: m_SelectedEdges.Array.data[0].b
      value: 145
      objectReference: {fileID: 0}
    - target: {fileID: 1515458584978340056, guid: fd10bdafdef640f419530573503a3f18,
        type: 3}
      propertyPath: m_SelectedEdges.Array.data[1].a
      value: 146
      objectReference: {fileID: 0}
    - target: {fileID: 1515458584978340056, guid: fd10bdafdef640f419530573503a3f18,
        type: 3}
      propertyPath: m_SelectedEdges.Array.data[1].b
      value: 144
      objectReference: {fileID: 0}
    - target: {fileID: 1515458584978340056, guid: fd10bdafdef640f419530573503a3f18,
        type: 3}
      propertyPath: m_SelectedEdges.Array.data[2].a
      value: 145
      objectReference: {fileID: 0}
    - target: {fileID: 1515458584978340056, guid: fd10bdafdef640f419530573503a3f18,
        type: 3}
      propertyPath: m_SelectedEdges.Array.data[2].b
      value: 147
      objectReference: {fileID: 0}
    - target: {fileID: 1515458584978340056, guid: fd10bdafdef640f419530573503a3f18,
        type: 3}
      propertyPath: m_SelectedEdges.Array.data[3].a
      value: 147
      objectReference: {fileID: 0}
    - target: {fileID: 1515458584978340056, guid: fd10bdafdef640f419530573503a3f18,
        type: 3}
      propertyPath: m_SelectedEdges.Array.data[3].b
      value: 146
      objectReference: {fileID: 0}
    - target: {fileID: 1515458584978340056, guid: fd10bdafdef640f419530573503a3f18,
        type: 3}
      propertyPath: m_SelectedVertices.Array.data[0]
      value: 144
      objectReference: {fileID: 0}
    - target: {fileID: 1515458584978340056, guid: fd10bdafdef640f419530573503a3f18,
        type: 3}
      propertyPath: m_SelectedVertices.Array.data[1]
      value: 145
      objectReference: {fileID: 0}
    - target: {fileID: 1515458584978340056, guid: fd10bdafdef640f419530573503a3f18,
        type: 3}
      propertyPath: m_SelectedVertices.Array.data[2]
      value: 146
      objectReference: {fileID: 0}
    - target: {fileID: 1515458584978340056, guid: fd10bdafdef640f419530573503a3f18,
        type: 3}
      propertyPath: m_SelectedVertices.Array.data[3]
      value: 147
      objectReference: {fileID: 0}
    - target: {fileID: 2014225672154432262, guid: fd10bdafdef640f419530573503a3f18,
        type: 3}
      propertyPath: m_Mesh
      value: 
      objectReference: {fileID: 0}
    - target: {fileID: 3270642153900120910, guid: fd10bdafdef640f419530573503a3f18,
        type: 3}
      propertyPath: m_Mesh
      value: 
      objectReference: {fileID: 0}
    - target: {fileID: 8158880466192807214, guid: fd10bdafdef640f419530573503a3f18,
        type: 3}
      propertyPath: m_Name
      value: ShotgunShell (1)
      objectReference: {fileID: 0}
    - target: {fileID: 8449000826789024816, guid: fd10bdafdef640f419530573503a3f18,
        type: 3}
      propertyPath: m_LocalPosition.x
      value: -0.217
      objectReference: {fileID: 0}
    - target: {fileID: 8449000826789024816, guid: fd10bdafdef640f419530573503a3f18,
        type: 3}
      propertyPath: m_LocalPosition.y
      value: 0.156
      objectReference: {fileID: 0}
    - target: {fileID: 8449000826789024816, guid: fd10bdafdef640f419530573503a3f18,
        type: 3}
      propertyPath: m_LocalPosition.z
      value: 0.02
      objectReference: {fileID: 0}
    - target: {fileID: 8449000826789024816, guid: fd10bdafdef640f419530573503a3f18,
        type: 3}
      propertyPath: m_LocalRotation.x
      value: 0.7071068
      objectReference: {fileID: 0}
    - target: {fileID: 8449000826789024816, guid: fd10bdafdef640f419530573503a3f18,
        type: 3}
      propertyPath: m_LocalRotation.y
      value: 0
      objectReference: {fileID: 0}
    - target: {fileID: 8449000826789024816, guid: fd10bdafdef640f419530573503a3f18,
        type: 3}
      propertyPath: m_LocalRotation.z
      value: 0
      objectReference: {fileID: 0}
    - target: {fileID: 8449000826789024816, guid: fd10bdafdef640f419530573503a3f18,
        type: 3}
      propertyPath: m_LocalRotation.w
      value: 0.7071068
      objectReference: {fileID: 0}
    - target: {fileID: 8449000826789024816, guid: fd10bdafdef640f419530573503a3f18,
        type: 3}
      propertyPath: m_RootOrder
      value: 1
      objectReference: {fileID: 0}
    - target: {fileID: 8449000826789024816, guid: fd10bdafdef640f419530573503a3f18,
        type: 3}
      propertyPath: m_LocalEulerAnglesHint.x
      value: 90
      objectReference: {fileID: 0}
    - target: {fileID: 8449000826789024816, guid: fd10bdafdef640f419530573503a3f18,
        type: 3}
      propertyPath: m_LocalEulerAnglesHint.y
      value: 0
      objectReference: {fileID: 0}
    - target: {fileID: 8449000826789024816, guid: fd10bdafdef640f419530573503a3f18,
        type: 3}
      propertyPath: m_LocalEulerAnglesHint.z
      value: 0
      objectReference: {fileID: 0}
    - target: {fileID: 8449000826789024816, guid: fd10bdafdef640f419530573503a3f18,
        type: 3}
      propertyPath: m_LocalScale.x
      value: 0.25
      objectReference: {fileID: 0}
    - target: {fileID: 8449000826789024816, guid: fd10bdafdef640f419530573503a3f18,
        type: 3}
      propertyPath: m_LocalScale.z
      value: 0.25
      objectReference: {fileID: 0}
    - target: {fileID: 8449000826789024816, guid: fd10bdafdef640f419530573503a3f18,
        type: 3}
      propertyPath: m_LocalScale.y
      value: 0.5
      objectReference: {fileID: 0}
    m_RemovedComponents: []
  m_SourcePrefab: {fileID: 100100000, guid: fd10bdafdef640f419530573503a3f18, type: 3}
--- !u!1001 &4909915324364125268
PrefabInstance:
  m_ObjectHideFlags: 0
  serializedVersion: 2
  m_Modification:
    m_TransformParent: {fileID: 6876308159770362818}
    m_Modifications:
    - target: {fileID: 1515458584978340056, guid: fd10bdafdef640f419530573503a3f18,
        type: 3}
      propertyPath: m_SelectedFaces.Array.size
      value: 0
      objectReference: {fileID: 0}
    - target: {fileID: 1515458584978340056, guid: fd10bdafdef640f419530573503a3f18,
        type: 3}
      propertyPath: m_SelectedEdges.Array.size
      value: 0
      objectReference: {fileID: 0}
    - target: {fileID: 1515458584978340056, guid: fd10bdafdef640f419530573503a3f18,
        type: 3}
      propertyPath: m_SelectedVertices.Array.size
      value: 0
      objectReference: {fileID: 0}
    - target: {fileID: 1515458584978340056, guid: fd10bdafdef640f419530573503a3f18,
        type: 3}
      propertyPath: m_SelectedFaces.Array.data[0]
      value: 36
      objectReference: {fileID: 0}
    - target: {fileID: 1515458584978340056, guid: fd10bdafdef640f419530573503a3f18,
        type: 3}
      propertyPath: m_SelectedEdges.Array.data[0].a
      value: 144
      objectReference: {fileID: 0}
    - target: {fileID: 1515458584978340056, guid: fd10bdafdef640f419530573503a3f18,
        type: 3}
      propertyPath: m_SelectedEdges.Array.data[0].b
      value: 145
      objectReference: {fileID: 0}
    - target: {fileID: 1515458584978340056, guid: fd10bdafdef640f419530573503a3f18,
        type: 3}
      propertyPath: m_SelectedEdges.Array.data[1].a
      value: 146
      objectReference: {fileID: 0}
    - target: {fileID: 1515458584978340056, guid: fd10bdafdef640f419530573503a3f18,
        type: 3}
      propertyPath: m_SelectedEdges.Array.data[1].b
      value: 144
      objectReference: {fileID: 0}
    - target: {fileID: 1515458584978340056, guid: fd10bdafdef640f419530573503a3f18,
        type: 3}
      propertyPath: m_SelectedEdges.Array.data[2].a
      value: 145
      objectReference: {fileID: 0}
    - target: {fileID: 1515458584978340056, guid: fd10bdafdef640f419530573503a3f18,
        type: 3}
      propertyPath: m_SelectedEdges.Array.data[2].b
      value: 147
      objectReference: {fileID: 0}
    - target: {fileID: 1515458584978340056, guid: fd10bdafdef640f419530573503a3f18,
        type: 3}
      propertyPath: m_SelectedEdges.Array.data[3].a
      value: 147
      objectReference: {fileID: 0}
    - target: {fileID: 1515458584978340056, guid: fd10bdafdef640f419530573503a3f18,
        type: 3}
      propertyPath: m_SelectedEdges.Array.data[3].b
      value: 146
      objectReference: {fileID: 0}
    - target: {fileID: 1515458584978340056, guid: fd10bdafdef640f419530573503a3f18,
        type: 3}
      propertyPath: m_SelectedVertices.Array.data[0]
      value: 144
      objectReference: {fileID: 0}
    - target: {fileID: 1515458584978340056, guid: fd10bdafdef640f419530573503a3f18,
        type: 3}
      propertyPath: m_SelectedVertices.Array.data[1]
      value: 145
      objectReference: {fileID: 0}
    - target: {fileID: 1515458584978340056, guid: fd10bdafdef640f419530573503a3f18,
        type: 3}
      propertyPath: m_SelectedVertices.Array.data[2]
      value: 146
      objectReference: {fileID: 0}
    - target: {fileID: 1515458584978340056, guid: fd10bdafdef640f419530573503a3f18,
        type: 3}
      propertyPath: m_SelectedVertices.Array.data[3]
      value: 147
      objectReference: {fileID: 0}
    - target: {fileID: 2014225672154432262, guid: fd10bdafdef640f419530573503a3f18,
        type: 3}
      propertyPath: m_Mesh
      value: 
      objectReference: {fileID: 0}
    - target: {fileID: 3270642153900120910, guid: fd10bdafdef640f419530573503a3f18,
        type: 3}
      propertyPath: m_Mesh
      value: 
      objectReference: {fileID: 0}
    - target: {fileID: 8158880466192807214, guid: fd10bdafdef640f419530573503a3f18,
        type: 3}
      propertyPath: m_Name
      value: ShotgunShell (2)
      objectReference: {fileID: 0}
    - target: {fileID: 8449000826789024816, guid: fd10bdafdef640f419530573503a3f18,
        type: 3}
      propertyPath: m_LocalPosition.x
      value: 0.519
      objectReference: {fileID: 0}
    - target: {fileID: 8449000826789024816, guid: fd10bdafdef640f419530573503a3f18,
        type: 3}
      propertyPath: m_LocalPosition.y
      value: 0.156
      objectReference: {fileID: 0}
    - target: {fileID: 8449000826789024816, guid: fd10bdafdef640f419530573503a3f18,
        type: 3}
      propertyPath: m_LocalPosition.z
      value: 0.02
      objectReference: {fileID: 0}
    - target: {fileID: 8449000826789024816, guid: fd10bdafdef640f419530573503a3f18,
        type: 3}
      propertyPath: m_LocalRotation.x
      value: 0.7071068
      objectReference: {fileID: 0}
    - target: {fileID: 8449000826789024816, guid: fd10bdafdef640f419530573503a3f18,
        type: 3}
      propertyPath: m_LocalRotation.y
      value: 0
      objectReference: {fileID: 0}
    - target: {fileID: 8449000826789024816, guid: fd10bdafdef640f419530573503a3f18,
        type: 3}
      propertyPath: m_LocalRotation.z
      value: 0
      objectReference: {fileID: 0}
    - target: {fileID: 8449000826789024816, guid: fd10bdafdef640f419530573503a3f18,
        type: 3}
      propertyPath: m_LocalRotation.w
      value: 0.7071068
      objectReference: {fileID: 0}
    - target: {fileID: 8449000826789024816, guid: fd10bdafdef640f419530573503a3f18,
        type: 3}
      propertyPath: m_RootOrder
      value: 2
      objectReference: {fileID: 0}
    - target: {fileID: 8449000826789024816, guid: fd10bdafdef640f419530573503a3f18,
        type: 3}
      propertyPath: m_LocalEulerAnglesHint.x
      value: 90
      objectReference: {fileID: 0}
    - target: {fileID: 8449000826789024816, guid: fd10bdafdef640f419530573503a3f18,
        type: 3}
      propertyPath: m_LocalEulerAnglesHint.y
      value: 0
      objectReference: {fileID: 0}
    - target: {fileID: 8449000826789024816, guid: fd10bdafdef640f419530573503a3f18,
        type: 3}
      propertyPath: m_LocalEulerAnglesHint.z
      value: 0
      objectReference: {fileID: 0}
    - target: {fileID: 8449000826789024816, guid: fd10bdafdef640f419530573503a3f18,
        type: 3}
      propertyPath: m_LocalScale.x
      value: 0.25
      objectReference: {fileID: 0}
    - target: {fileID: 8449000826789024816, guid: fd10bdafdef640f419530573503a3f18,
        type: 3}
      propertyPath: m_LocalScale.z
      value: 0.25
      objectReference: {fileID: 0}
    - target: {fileID: 8449000826789024816, guid: fd10bdafdef640f419530573503a3f18,
        type: 3}
      propertyPath: m_LocalScale.y
      value: 0.5
      objectReference: {fileID: 0}
    m_RemovedComponents: []
  m_SourcePrefab: {fileID: 100100000, guid: fd10bdafdef640f419530573503a3f18, type: 3}
--- !u!1001 &6515570087215012801
PrefabInstance:
  m_ObjectHideFlags: 0
  serializedVersion: 2
  m_Modification:
    m_TransformParent: {fileID: 0}
    m_Modifications:
    - target: {fileID: 362110616345188355, guid: f9f9aef8178b38943a037822fc675353,
        type: 3}
      propertyPath: m_LocalPosition.x
      value: -16.653328
      objectReference: {fileID: 0}
    - target: {fileID: 362110616345188355, guid: f9f9aef8178b38943a037822fc675353,
        type: 3}
      propertyPath: m_LocalPosition.y
      value: -0.0018310547
      objectReference: {fileID: 0}
    - target: {fileID: 362110616345188355, guid: f9f9aef8178b38943a037822fc675353,
        type: 3}
      propertyPath: m_LocalPosition.z
      value: 39.526924
      objectReference: {fileID: 0}
    - target: {fileID: 362110616345188355, guid: f9f9aef8178b38943a037822fc675353,
        type: 3}
      propertyPath: m_LocalRotation.x
      value: 0
      objectReference: {fileID: 0}
    - target: {fileID: 362110616345188355, guid: f9f9aef8178b38943a037822fc675353,
        type: 3}
      propertyPath: m_LocalRotation.y
      value: 0
      objectReference: {fileID: 0}
    - target: {fileID: 362110616345188355, guid: f9f9aef8178b38943a037822fc675353,
        type: 3}
      propertyPath: m_LocalRotation.z
      value: 0
      objectReference: {fileID: 0}
    - target: {fileID: 362110616345188355, guid: f9f9aef8178b38943a037822fc675353,
        type: 3}
      propertyPath: m_LocalRotation.w
      value: 1
      objectReference: {fileID: 0}
    - target: {fileID: 362110616345188355, guid: f9f9aef8178b38943a037822fc675353,
        type: 3}
      propertyPath: m_RootOrder
      value: 0
      objectReference: {fileID: 0}
    - target: {fileID: 362110616345188355, guid: f9f9aef8178b38943a037822fc675353,
        type: 3}
      propertyPath: m_LocalEulerAnglesHint.x
      value: 0
      objectReference: {fileID: 0}
    - target: {fileID: 362110616345188355, guid: f9f9aef8178b38943a037822fc675353,
        type: 3}
      propertyPath: m_LocalEulerAnglesHint.y
      value: 0
      objectReference: {fileID: 0}
    - target: {fileID: 362110616345188355, guid: f9f9aef8178b38943a037822fc675353,
        type: 3}
      propertyPath: m_LocalEulerAnglesHint.z
      value: 0
      objectReference: {fileID: 0}
    - target: {fileID: 3032151308094003498, guid: f9f9aef8178b38943a037822fc675353,
        type: 3}
      propertyPath: ammoType
      value: 1
      objectReference: {fileID: 0}
    - target: {fileID: 5726652554540917644, guid: f9f9aef8178b38943a037822fc675353,
        type: 3}
      propertyPath: m_LocalRotation.x
      value: 0.41538036
      objectReference: {fileID: 0}
    - target: {fileID: 5726652554540917644, guid: f9f9aef8178b38943a037822fc675353,
        type: 3}
      propertyPath: m_LocalRotation.y
      value: 0.57224053
      objectReference: {fileID: 0}
    - target: {fileID: 5726652554540917644, guid: f9f9aef8178b38943a037822fc675353,
        type: 3}
      propertyPath: m_LocalRotation.z
      value: -0.4153804
      objectReference: {fileID: 0}
    - target: {fileID: 5726652554540917644, guid: f9f9aef8178b38943a037822fc675353,
        type: 3}
      propertyPath: m_LocalRotation.w
      value: 0.5722405
      objectReference: {fileID: 0}
    - target: {fileID: 5726652554540917644, guid: f9f9aef8178b38943a037822fc675353,
        type: 3}
      propertyPath: m_LocalPosition.x
      value: -0.851
      objectReference: {fileID: 0}
    - target: {fileID: 5726652554540917644, guid: f9f9aef8178b38943a037822fc675353,
        type: 3}
      propertyPath: m_LocalPosition.y
      value: 1.754
      objectReference: {fileID: 0}
    - target: {fileID: 5726652554540917644, guid: f9f9aef8178b38943a037822fc675353,
        type: 3}
      propertyPath: m_LocalPosition.z
      value: 0.395
      objectReference: {fileID: 0}
    - target: {fileID: 5726652554540917644, guid: f9f9aef8178b38943a037822fc675353,
        type: 3}
      propertyPath: m_RootOrder
      value: 3
      objectReference: {fileID: 0}
    - target: {fileID: 5726652554540917644, guid: f9f9aef8178b38943a037822fc675353,
        type: 3}
      propertyPath: m_LocalEulerAnglesHint.x
      value: 71.951004
      objectReference: {fileID: 0}
    - target: {fileID: 6004620437367570122, guid: f9f9aef8178b38943a037822fc675353,
        type: 3}
      propertyPath: m_Intensity
      value: 2
      objectReference: {fileID: 0}
    - target: {fileID: 8444688599290004063, guid: f9f9aef8178b38943a037822fc675353,
        type: 3}
      propertyPath: m_Name
      value: ShellPickup
      objectReference: {fileID: 0}
    m_RemovedComponents: []
  m_SourcePrefab: {fileID: 100100000, guid: f9f9aef8178b38943a037822fc675353, type: 3}
--- !u!4 &6876308159770362818 stripped
Transform:
  m_CorrespondingSourceObject: {fileID: 362110616345188355, guid: f9f9aef8178b38943a037822fc675353,
    type: 3}
  m_PrefabInstance: {fileID: 6515570087215012801}
  m_PrefabAsset: {fileID: 0}
--- !u!1001 &8440195066055571064
PrefabInstance:
  m_ObjectHideFlags: 0
  serializedVersion: 2
  m_Modification:
    m_TransformParent: {fileID: 6876308159770362818}
    m_Modifications:
    - target: {fileID: 1515458584978340056, guid: fd10bdafdef640f419530573503a3f18,
        type: 3}
      propertyPath: m_SelectedFaces.Array.size
      value: 0
      objectReference: {fileID: 0}
    - target: {fileID: 1515458584978340056, guid: fd10bdafdef640f419530573503a3f18,
        type: 3}
      propertyPath: m_SelectedEdges.Array.size
      value: 0
      objectReference: {fileID: 0}
    - target: {fileID: 1515458584978340056, guid: fd10bdafdef640f419530573503a3f18,
        type: 3}
      propertyPath: m_SelectedVertices.Array.size
      value: 0
      objectReference: {fileID: 0}
    - target: {fileID: 1515458584978340056, guid: fd10bdafdef640f419530573503a3f18,
        type: 3}
      propertyPath: m_SelectedFaces.Array.data[0]
      value: 36
      objectReference: {fileID: 0}
    - target: {fileID: 1515458584978340056, guid: fd10bdafdef640f419530573503a3f18,
        type: 3}
      propertyPath: m_SelectedEdges.Array.data[0].a
      value: 144
      objectReference: {fileID: 0}
    - target: {fileID: 1515458584978340056, guid: fd10bdafdef640f419530573503a3f18,
        type: 3}
      propertyPath: m_SelectedEdges.Array.data[0].b
      value: 145
      objectReference: {fileID: 0}
    - target: {fileID: 1515458584978340056, guid: fd10bdafdef640f419530573503a3f18,
        type: 3}
      propertyPath: m_SelectedEdges.Array.data[1].a
      value: 146
      objectReference: {fileID: 0}
    - target: {fileID: 1515458584978340056, guid: fd10bdafdef640f419530573503a3f18,
        type: 3}
      propertyPath: m_SelectedEdges.Array.data[1].b
      value: 144
      objectReference: {fileID: 0}
    - target: {fileID: 1515458584978340056, guid: fd10bdafdef640f419530573503a3f18,
        type: 3}
      propertyPath: m_SelectedEdges.Array.data[2].a
      value: 145
      objectReference: {fileID: 0}
    - target: {fileID: 1515458584978340056, guid: fd10bdafdef640f419530573503a3f18,
        type: 3}
      propertyPath: m_SelectedEdges.Array.data[2].b
      value: 147
      objectReference: {fileID: 0}
    - target: {fileID: 1515458584978340056, guid: fd10bdafdef640f419530573503a3f18,
        type: 3}
      propertyPath: m_SelectedEdges.Array.data[3].a
      value: 147
      objectReference: {fileID: 0}
    - target: {fileID: 1515458584978340056, guid: fd10bdafdef640f419530573503a3f18,
        type: 3}
      propertyPath: m_SelectedEdges.Array.data[3].b
      value: 146
      objectReference: {fileID: 0}
    - target: {fileID: 1515458584978340056, guid: fd10bdafdef640f419530573503a3f18,
        type: 3}
      propertyPath: m_SelectedVertices.Array.data[0]
      value: 144
      objectReference: {fileID: 0}
    - target: {fileID: 1515458584978340056, guid: fd10bdafdef640f419530573503a3f18,
        type: 3}
      propertyPath: m_SelectedVertices.Array.data[1]
      value: 145
      objectReference: {fileID: 0}
    - target: {fileID: 1515458584978340056, guid: fd10bdafdef640f419530573503a3f18,
        type: 3}
      propertyPath: m_SelectedVertices.Array.data[2]
      value: 146
      objectReference: {fileID: 0}
    - target: {fileID: 1515458584978340056, guid: fd10bdafdef640f419530573503a3f18,
        type: 3}
      propertyPath: m_SelectedVertices.Array.data[3]
      value: 147
      objectReference: {fileID: 0}
    - target: {fileID: 2014225672154432262, guid: fd10bdafdef640f419530573503a3f18,
        type: 3}
      propertyPath: m_Mesh
      value: 
      objectReference: {fileID: 0}
    - target: {fileID: 3270642153900120910, guid: fd10bdafdef640f419530573503a3f18,
        type: 3}
      propertyPath: m_Mesh
      value: 
      objectReference: {fileID: 0}
    - target: {fileID: 8158880466192807214, guid: fd10bdafdef640f419530573503a3f18,
        type: 3}
      propertyPath: m_Name
      value: ShotgunShell
      objectReference: {fileID: 0}
    - target: {fileID: 8449000826789024816, guid: fd10bdafdef640f419530573503a3f18,
        type: 3}
      propertyPath: m_LocalPosition.x
      value: 0.16
      objectReference: {fileID: 0}
    - target: {fileID: 8449000826789024816, guid: fd10bdafdef640f419530573503a3f18,
        type: 3}
      propertyPath: m_LocalPosition.y
      value: 0.156
      objectReference: {fileID: 0}
    - target: {fileID: 8449000826789024816, guid: fd10bdafdef640f419530573503a3f18,
        type: 3}
      propertyPath: m_LocalPosition.z
      value: 0.02
      objectReference: {fileID: 0}
    - target: {fileID: 8449000826789024816, guid: fd10bdafdef640f419530573503a3f18,
        type: 3}
      propertyPath: m_LocalRotation.x
      value: 0.7071068
      objectReference: {fileID: 0}
    - target: {fileID: 8449000826789024816, guid: fd10bdafdef640f419530573503a3f18,
        type: 3}
      propertyPath: m_LocalRotation.y
      value: 0
      objectReference: {fileID: 0}
    - target: {fileID: 8449000826789024816, guid: fd10bdafdef640f419530573503a3f18,
        type: 3}
      propertyPath: m_LocalRotation.z
      value: 0
      objectReference: {fileID: 0}
    - target: {fileID: 8449000826789024816, guid: fd10bdafdef640f419530573503a3f18,
        type: 3}
      propertyPath: m_LocalRotation.w
      value: 0.7071068
      objectReference: {fileID: 0}
    - target: {fileID: 8449000826789024816, guid: fd10bdafdef640f419530573503a3f18,
        type: 3}
      propertyPath: m_RootOrder
      value: 0
      objectReference: {fileID: 0}
    - target: {fileID: 8449000826789024816, guid: fd10bdafdef640f419530573503a3f18,
        type: 3}
      propertyPath: m_LocalEulerAnglesHint.x
      value: 90
      objectReference: {fileID: 0}
    - target: {fileID: 8449000826789024816, guid: fd10bdafdef640f419530573503a3f18,
        type: 3}
      propertyPath: m_LocalEulerAnglesHint.y
      value: 0
      objectReference: {fileID: 0}
    - target: {fileID: 8449000826789024816, guid: fd10bdafdef640f419530573503a3f18,
        type: 3}
      propertyPath: m_LocalEulerAnglesHint.z
      value: 0
      objectReference: {fileID: 0}
    - target: {fileID: 8449000826789024816, guid: fd10bdafdef640f419530573503a3f18,
        type: 3}
      propertyPath: m_LocalScale.x
      value: 0.25
      objectReference: {fileID: 0}
    - target: {fileID: 8449000826789024816, guid: fd10bdafdef640f419530573503a3f18,
        type: 3}
      propertyPath: m_LocalScale.z
      value: 0.25
      objectReference: {fileID: 0}
    - target: {fileID: 8449000826789024816, guid: fd10bdafdef640f419530573503a3f18,
        type: 3}
      propertyPath: m_LocalScale.y
      value: 0.5
      objectReference: {fileID: 0}
    m_RemovedComponents: []
  m_SourcePrefab: {fileID: 100100000, guid: fd10bdafdef640f419530573503a3f18, type: 3}
